tb_spi_rx_buffer.vcd
$date
	Sat Jan 31 23:15:32 2026
$end
$version
	Icarus Verilog
$end
$timescale
	1ps
$end
$scope module tb_spi_rx_buffer $end
$var wire 1 ! spi_rx_valid $end
$var wire 128 " spi_rx_data [127:0] $end
$var wire 1 # mem_ready $end
$var wire 32 $ mem_rdata [31:0] $end
$var wire 1 % irq_rx $end
$var reg 1 & clk $end
$var reg 32 ' mem_addr [31:0] $end
$var reg 1 ( mem_valid $end
$var reg 32 ) mem_wdata [31:0] $end
$var reg 4 * mem_wstrb [3:0] $end
$var reg 32 + read_result [31:0] $end
$var reg 1 , resetn $end
$var reg 1 - spi_clk_in $end
$var reg 1 . spi_cs_n_in $end
$var reg 8 / spi_data_in [7:0] $end
$scope module rx_buffer $end
$var wire 1 0 addr_valid $end
$var wire 1 & clk $end
$var wire 1 % irq_rx $end
$var wire 32 1 mem_addr [31:0] $end
$var wire 1 ( mem_valid $end
$var wire 32 2 mem_wdata [31:0] $end
$var wire 4 3 mem_wstrb [3:0] $end
$var wire 1 , resetn $end
$var wire 1 ! spi_rx_valid $end
$var wire 128 4 spi_rx_data [127:0] $end
$var wire 1 5 is_write $end
$var wire 1 6 is_read $end
$var parameter 33 7 ADDR_IRQ_ENABLE $end
$var parameter 33 8 ADDR_RX_CLEAR $end
$var parameter 33 9 ADDR_RX_DATA_0 $end
$var parameter 33 : ADDR_RX_DATA_1 $end
$var parameter 33 ; ADDR_RX_DATA_2 $end
$var parameter 33 < ADDR_RX_DATA_3 $end
$var parameter 33 = ADDR_RX_STATUS $end
$var parameter 32 > BASE_ADDR $end
$var reg 1 ? irq_enable $end
$var reg 32 @ mem_rdata [31:0] $end
$var reg 1 # mem_ready $end
$var reg 128 A rx_data_buffer [127:0] $end
$var reg 1 B rx_data_ready $end
$upscope $end
$scope module spi_slave $end
$var wire 1 & clk $end
$var wire 1 C entering_complete $end
$var wire 1 D irq_rx $end
$var wire 1 , resetn $end
$var wire 1 - spi_clk_in $end
$var wire 1 E spi_clk_rising_edge $end
$var wire 1 . spi_cs_n_in $end
$var wire 1 F spi_cs_n_sync $end
$var wire 8 G spi_data_in [7:0] $end
$var wire 8 H spi_data_sync [7:0] $end
$var wire 1 I rx_busy $end
$var wire 1 J byte_count_done $end
$var parameter 2 K STATE_COMPLETE $end
$var parameter 2 L STATE_IDLE $end
$var parameter 2 M STATE_RECEIVING $end
$var reg 4 N byte_count [3:0] $end
$var reg 128 O rx_data [127:0] $end
$var reg 1 ! rx_valid $end
$var reg 128 P shift_reg [127:0] $end
$var reg 1 Q spi_clk_sync1 $end
$var reg 1 R spi_clk_sync2 $end
$var reg 1 S spi_clk_sync3 $end
$var reg 1 T spi_cs_n_sync1 $end
$var reg 1 U spi_cs_n_sync2 $end
$var reg 8 V spi_data_sync1 [7:0] $end
$var reg 8 W spi_data_sync2 [7:0] $end
$var reg 2 X state [1:0] $end
$var reg 2 Y state_next [1:0] $end
$var reg 2 Z state_prev [1:0] $end
$upscope $end
$scope task cpu_read $end
$var reg 32 [ addr [31:0] $end
$var reg 32 \ data [31:0] $end
$upscope $end
$scope task cpu_write $end
$var reg 32 ] addr [31:0] $end
$var reg 32 ^ data [31:0] $end
$upscope $end
$scope task spi_send_128bits $end
$var integer 32 _ i [31:0] $end
$upscope $end
$scope task spi_send_byte $end
$var reg 8 ` data [7:0] $end
$upscope $end
$upscope $end
$enddefinitions $end
$comment Show the parameter values. $end
$dumpall
b1 M
b0 L
b10 K
b110000000000000000000000000000 >
b110000000000000000000000000000 =
b110000000000000000000000010000 <
b110000000000000000000000001100 ;
b110000000000000000000000001000 :
b110000000000000000000000000100 9
b110000000000000000000000010100 8
b110000000000000000000000011000 7
$end
#0
$dumpvars
bx `
bx _
bx ^
bx ]
bx \
bx [
b0 Z
b0 Y
b0 X
b0 W
b0 V
1U
1T
0S
0R
0Q
b0 P
b0 O
b0 N
0J
0I
b0 H
b0 G
1F
0E
0D
0C
0B
b0 A
b0 @
0?
16
05
b0 4
b0 3
b0 2
b0 1
00
b0 /
1.
0-
0,
bx +
b0 *
b0 )
0(
b0 '
0&
0%
b0 $
0#
b0 "
0!
$end
#10000
1&
#20000
0&
#30000
1&
#40000
0&
#50000
1&
#60000
0&
#70000
1&
#80000
0&
#90000
1&
#100000
0&
1,
#110000
1&
#120000
0&
#130000
1&
#140000
0&
#150000
1&
#160000
0&
#170000
1&
#180000
0&
#190000
1&
#200000
0&
b110000000000000000000000000000 [
#210000
10
b110000000000000000000000000000 '
b110000000000000000000000000000 1
1(
1&
#220000
0&
#230000
1#
1&
#240000
0&
#250000
0#
b0 \
1&
#260000
0&
#270000
1#
0(
b1 ^
b110000000000000000000000011000 ]
b0 +
1&
#280000
0&
#290000
0#
b1 )
b1 2
15
06
b1111 *
b1111 3
b110000000000000000000000011000 '
b110000000000000000000000011000 1
1(
1&
#300000
0&
#310000
1?
1#
1&
#320000
0&
#330000
0#
1&
#340000
0&
#350000
1#
0(
b110000000000000000000000011000 [
1&
#360000
0&
#370000
0#
b0 )
b0 2
05
16
b0 *
b0 3
1(
1&
#380000
0&
#390000
b1 $
b1 @
1#
1&
#400000
0&
#410000
b0 $
b0 @
0#
b1 \
1&
#420000
0&
#430000
0T
b1 $
b1 @
1#
0(
0.
b1 +
1&
#440000
0&
#450000
b1 Y
b0 $
b0 @
0#
0F
0U
1&
#460000
0&
#470000
b1011010 V
1I
b1 X
1&
b1011010 /
b1011010 G
b1011010 `
b0 _
#480000
0&
#490000
b1 Z
b1011010 H
b1011010 W
1Q
1&
1-
#500000
0&
#510000
1E
1R
1&
#520000
0&
#530000
0E
b1 N
b1011010000000000000000000000000000000000000000000000000000000000000000000000000000000000000000000000000000000000000000000000000 P
1S
0Q
1&
0-
#540000
0&
#550000
0R
1&
#560000
0&
#570000
b11000101 V
0S
1&
b11000101 /
b11000101 G
b11000101 `
b1 _
#580000
0&
#590000
b11000101 H
b11000101 W
1Q
1&
1-
#600000
0&
#610000
1E
1R
1&
#620000
0&
#630000
0E
1S
0Q
b10 N
b11000101010110100000000000000000000000000000000000000000000000000000000000000000000000000000000000000000000000000000000000000000 P
1&
0-
#640000
0&
#650000
0R
1&
#660000
0&
#670000
b10110100 V
0S
1&
b10110100 /
b10110100 G
b10110100 `
b10 _
#680000
0&
#690000
b10110100 H
b10110100 W
1Q
1&
1-
#700000
0&
#710000
1E
1R
1&
#720000
0&
#730000
0E
b11 N
b10110100110001010101101000000000000000000000000000000000000000000000000000000000000000000000000000000000000000000000000000000000 P
1S
0Q
1&
0-
#740000
0&
#750000
0R
1&
#760000
0&
#770000
b1110000 V
0S
1&
b1110000 /
b1110000 G
b1110000 `
b11 _
#780000
0&
#790000
b1110000 H
b1110000 W
1Q
1&
1-
#800000
0&
#810000
1E
1R
1&
#820000
0&
#830000
0E
1S
0Q
b100 N
b1110000101101001100010101011010000000000000000000000000000000000000000000000000000000000000000000000000000000000000000000000000 P
1&
0-
#840000
0&
#850000
0R
1&
#860000
0&
#870000
b10000000 V
0S
1&
b10000000 /
b10000000 G
b10000000 `
b100 _
#880000
0&
#890000
b10000000 H
b10000000 W
1Q
1&
1-
#900000
0&
#910000
1E
1R
1&
#920000
0&
#930000
0E
b101 N
b10000000011100001011010011000101010110100000000000000000000000000000000000000000000000000000000000000000000000000000000000000000 P
1S
0Q
1&
0-
#940000
0&
#950000
0R
1&
#960000
0&
#970000
b10110111 V
0S
1&
b10110111 /
b10110111 G
b10110111 `
b101 _
#980000
0&
#990000
b10110111 H
b10110111 W
1Q
1&
1-
#1000000
0&
#1010000
1E
1R
1&
#1020000
0&
#1030000
0E
1S
0Q
b110 N
b10110111100000000111000010110100110001010101101000000000000000000000000000000000000000000000000000000000000000000000000000000000 P
1&
0-
#1040000
0&
#1050000
0R
1&
#1060000
0&
#1070000
b11001101 V
0S
1&
b11001101 /
b11001101 G
b11001101 `
b110 _
#1080000
0&
#1090000
b11001101 H
b11001101 W
1Q
1&
1-
#1100000
0&
#1110000
1E
1R
1&
#1120000
0&
#1130000
0E
b111 N
b11001101101101111000000001110000101101001100010101011010000000000000000000000000000000000000000000000000000000000000000000000000 P
1S
0Q
1&
0-
#1140000
0&
#1150000
0R
1&
#1160000
0&
#1170000
b11011000 V
0S
1&
b11011000 /
b11011000 G
b11011000 `
b111 _
#1180000
0&
#1190000
b11011000 H
b11011000 W
1Q
1&
1-
#1200000
0&
#1210000
1E
1R
1&
#1220000
0&
#1230000
0E
1S
0Q
b1000 N
b11011000110011011011011110000000011100001011010011000101010110100000000000000000000000000000000000000000000000000000000000000000 P
1&
0-
#1240000
0&
#1250000
0R
1&
#1260000
0&
#1270000
b110000 V
0S
1&
b110000 /
b110000 G
b110000 `
b1000 _
#1280000
0&
#1290000
b110000 H
b110000 W
1Q
1&
1-
#1300000
0&
#1310000
1E
1R
1&
#1320000
0&
#1330000
0E
b1001 N
b110000110110001100110110110111100000000111000010110100110001010101101000000000000000000000000000000000000000000000000000000000 P
1S
0Q
1&
0-
#1340000
0&
#1350000
0R
1&
#1360000
0&
#1370000
b100 V
0S
1&
b100 /
b100 G
b100 `
b1001 _
#1380000
0&
#1390000
b100 H
b100 W
1Q
1&
1-
#1400000
0&
#1410000
1E
1R
1&
#1420000
0&
#1430000
0E
1S
0Q
b1010 N
b100001100001101100011001101101101111000000001110000101101001100010101011010000000000000000000000000000000000000000000000000 P
1&
0-
#1440000
0&
#1450000
0R
1&
#1460000
0&
#1470000
b1111011 V
0S
1&
b1111011 /
b1111011 G
b1111011 `
b1010 _
#1480000
0&
#1490000
b1111011 H
b1111011 W
1Q
1&
1-
#1500000
0&
#1510000
1E
1R
1&
#1520000
0&
#1530000
0E
b1011 N
b1111011000001000011000011011000110011011011011110000000011100001011010011000101010110100000000000000000000000000000000000000000 P
1S
0Q
1&
0-
#1540000
0&
#1550000
0R
1&
#1560000
0&
#1570000
b1101010 V
0S
1&
b1101010 /
b1101010 G
b1101010 `
b1011 _
#1580000
0&
#1590000
b1101010 H
b1101010 W
1Q
1&
1-
#1600000
0&
#1610000
1E
1R
1&
#1620000
0&
#1630000
0E
1S
0Q
b1100 N
b1101010011110110000010000110000110110001100110110110111100000000111000010110100110001010101101000000000000000000000000000000000 P
1&
0-
#1640000
0&
#1650000
0R
1&
#1660000
0&
#1670000
b11011000 V
0S
1&
b11011000 /
b11011000 G
b11011000 `
b1100 _
#1680000
0&
#1690000
b11011000 H
b11011000 W
1Q
1&
1-
#1700000
0&
#1710000
1E
1R
1&
#1720000
0&
#1730000
0E
b1101 N
b11011000011010100111101100000100001100001101100011001101101101111000000001110000101101001100010101011010000000000000000000000000 P
1S
0Q
1&
0-
#1740000
0&
#1750000
0R
1&
#1760000
0&
#1770000
b11100000 V
0S
1&
b11100000 /
b11100000 G
b11100000 `
b1101 _
#1780000
0&
#1790000
b11100000 H
b11100000 W
1Q
1&
1-
#1800000
0&
#1810000
1E
1R
1&
#1820000
0&
#1830000
0E
1S
0Q
b1110 N
b11100000110110000110101001111011000001000011000011011000110011011011011110000000011100001011010011000101010110100000000000000000 P
1&
0-
#1840000
0&
#1850000
0R
1&
#1860000
0&
#1870000
b11000100 V
0S
1&
b11000100 /
b11000100 G
b11000100 `
b1110 _
#1880000
0&
#1890000
b11000100 H
b11000100 W
1Q
1&
1-
#1900000
0&
#1910000
1E
1R
1&
#1920000
0&
#1930000
0E
b1 Y
1J
b1111 N
b11000100111000001101100001101010011110110000010000110000110110001100110110110111100000000111000010110100110001010101101000000000 P
1S
0Q
1&
0-
#1940000
0&
#1950000
0R
1&
#1960000
0&
#1970000
b1101001 V
0S
1&
b1101001 /
b1101001 G
b1101001 `
b1111 _
#1980000
0&
#1990000
b1101001 H
b1101001 W
1Q
1&
1-
#2000000
0&
#2010000
b10 Y
1E
1R
1&
#2020000
0&
#2030000
0E
1C
1S
0Q
0I
b10 X
0J
b0 N
b1101001110001001110000011011000011010100111101100000100001100001101100011001101101101111000000001110000101101001100010101011010 P
1&
0-
#2040000
0&
#2050000
0C
1D
1!
b1101001110001001110000011011000011010100111101100000100001100001101100011001101101101111000000001110000101101001100010101011010 "
b1101001110001001110000011011000011010100111101100000100001100001101100011001101101101111000000001110000101101001100010101011010 4
b1101001110001001110000011011000011010100111101100000100001100001101100011001101101101111000000001110000101101001100010101011010 O
b10 Z
0R
1&
#2060000
0&
#2070000
1%
0S
0D
0!
1B
b1101001110001001110000011011000011010100111101100000100001100001101100011001101101101111000000001110000101101001100010101011010 A
1&
b10000 _
#2080000
0&
#2090000
1&
#2100000
0&
#2110000
1T
1&
1.
#2120000
0&
#2130000
b0 Y
1F
1U
1&
#2140000
0&
#2150000
b0 X
1&
#2160000
0&
#2170000
b0 P
b0 Z
1&
#2180000
0&
#2190000
1&
#2200000
0&
#2210000
1&
#2220000
0&
#2230000
1&
#2240000
0&
#2250000
1&
#2260000
0&
#2270000
1&
#2280000
0&
#2290000
1&
#2300000
0&
#2310000
b110000000000000000000000000000 '
b110000000000000000000000000000 1
1(
1&
b110000000000000000000000000000 [
#2320000
0&
#2330000
b1 $
b1 @
1#
1&
#2340000
0&
#2350000
b0 $
b0 @
0#
1&
#2360000
0&
#2370000
b1 $
b1 @
1#
0(
b110000000000000000000000000100 [
1&
#2380000
0&
#2390000
b0 $
b0 @
0#
b110000000000000000000000000100 '
b110000000000000000000000000100 1
1(
1&
#2400000
0&
#2410000
b1110000101101001100010101011010 $
b1110000101101001100010101011010 @
1#
1&
#2420000
0&
#2430000
b0 $
b0 @
0#
b1110000101101001100010101011010 \
1&
#2440000
0&
#2450000
b1110000101101001100010101011010 $
b1110000101101001100010101011010 @
1#
0(
b110000000000000000000000001000 [
b1110000101101001100010101011010 +
1&
#2460000
0&
#2470000
b0 $
b0 @
0#
b110000000000000000000000001000 '
b110000000000000000000000001000 1
1(
1&
#2480000
0&
#2490000
b11011000110011011011011110000000 $
b11011000110011011011011110000000 @
1#
1&
#2500000
0&
#2510000
b0 $
b0 @
0#
b11011000110011011011011110000000 \
1&
#2520000
0&
#2530000
b11011000110011011011011110000000 $
b11011000110011011011011110000000 @
1#
0(
b110000000000000000000000001100 [
b11011000110011011011011110000000 +
1&
#2540000
0&
#2550000
b0 $
b0 @
0#
b110000000000000000000000001100 '
b110000000000000000000000001100 1
1(
1&
#2560000
0&
#2570000
b1101010011110110000010000110000 $
b1101010011110110000010000110000 @
1#
1&
#2580000
0&
#2590000
b0 $
b0 @
0#
b1101010011110110000010000110000 \
1&
#2600000
0&
#2610000
b1101010011110110000010000110000 $
b1101010011110110000010000110000 @
1#
0(
b110000000000000000000000010000 [
b1101010011110110000010000110000 +
1&
#2620000
0&
#2630000
b0 $
b0 @
0#
b110000000000000000000000010000 '
b110000000000000000000000010000 1
1(
1&
#2640000
0&
#2650000
b1101001110001001110000011011000 $
b1101001110001001110000011011000 @
1#
1&
#2660000
0&
#2670000
b0 $
b0 @
0#
b1101001110001001110000011011000 \
1&
#2680000
0&
#2690000
b1101001110001001110000011011000 $
b1101001110001001110000011011000 @
1#
0(
b110000000000000000000000010100 ]
b1101001110001001110000011011000 +
1&
#2700000
0&
#2710000
b0 $
b0 @
0#
b1 )
b1 2
15
06
b1111 *
b1111 3
b110000000000000000000000010100 '
b110000000000000000000000010100 1
1(
1&
#2720000
0&
#2730000
0%
1#
0B
1&
#2740000
0&
#2750000
0#
1&
#2760000
0&
#2770000
1#
0(
1&
#2780000
0&
#2790000
0#
b0 )
b0 2
05
16
b0 *
b0 3
b110000000000000000000000000000 '
b110000000000000000000000000000 1
1(
1&
b110000000000000000000000000000 [
#2800000
0&
#2810000
1#
1&
#2820000
0&
#2830000
0#
b0 \
1&
#2840000
0&
#2850000
1#
0T
0(
0.
b0 +
1&
#2860000
0&
#2870000
b1 Y
0F
0U
0#
1&
#2880000
0&
#2890000
1I
b1 X
b11011110 V
1&
b11011110 /
b11011110 G
b11011110 `
b0 _
#2900000
0&
#2910000
b11011110 H
b11011110 W
1Q
b1 Z
1&
1-
#2920000
0&
#2930000
1E
1R
1&
#2940000
0&
#2950000
0E
1S
0Q
b1 N
b11011110000000000000000000000000000000000000000000000000000000000000000000000000000000000000000000000000000000000000000000000000 P
1&
0-
#2960000
0&
#2970000
0R
1&
#2980000
0&
#2990000
b11000101 V
0S
1&
b11000101 /
b11000101 G
b11000101 `
b1 _
#3000000
0&
#3010000
b11000101 H
b11000101 W
1Q
1&
1-
#3020000
0&
#3030000
1E
1R
1&
#3040000
0&
#3050000
0E
b10 N
b11000101110111100000000000000000000000000000000000000000000000000000000000000000000000000000000000000000000000000000000000000000 P
1S
0Q
1&
0-
#3060000
0&
#3070000
0R
1&
#3080000
0&
#3090000
b10110100 V
0S
1&
b10110100 /
b10110100 G
b10110100 `
b10 _
#3100000
0&
#3110000
b10110100 H
b10110100 W
1Q
1&
1-
#3120000
0&
#3130000
1E
1R
1&
#3140000
0&
#3150000
0E
1S
0Q
b11 N
b10110100110001011101111000000000000000000000000000000000000000000000000000000000000000000000000000000000000000000000000000000000 P
1&
0-
#3160000
0&
#3170000
0R
1&
#3180000
0&
#3190000
b1110000 V
0S
1&
b1110000 /
b1110000 G
b1110000 `
b11 _
#3200000
0&
#3210000
b1110000 H
b1110000 W
1Q
1&
1-
#3220000
0&
#3230000
1E
1R
1&
#3240000
0&
#3250000
0E
b100 N
b1110000101101001100010111011110000000000000000000000000000000000000000000000000000000000000000000000000000000000000000000000000 P
1S
0Q
1&
0-
#3260000
0&
#3270000
0R
1&
#3280000
0&
#3290000
b10000000 V
0S
1&
b10000000 /
b10000000 G
b10000000 `
b100 _
#3300000
0&
#3310000
b10000000 H
b10000000 W
1Q
1&
1-
#3320000
0&
#3330000
1E
1R
1&
#3340000
0&
#3350000
0E
1S
0Q
b101 N
b10000000011100001011010011000101110111100000000000000000000000000000000000000000000000000000000000000000000000000000000000000000 P
1&
0-
#3360000
0&
#3370000
0R
1&
#3380000
0&
#3390000
b10110111 V
0S
1&
b10110111 /
b10110111 G
b10110111 `
b101 _
#3400000
0&
#3410000
b10110111 H
b10110111 W
1Q
1&
1-
#3420000
0&
#3430000
1E
1R
1&
#3440000
0&
#3450000
0E
b110 N
b10110111100000000111000010110100110001011101111000000000000000000000000000000000000000000000000000000000000000000000000000000000 P
1S
0Q
1&
0-
#3460000
0&
#3470000
0R
1&
#3480000
0&
#3490000
b11001101 V
0S
1&
b11001101 /
b11001101 G
b11001101 `
b110 _
#3500000
0&
#3510000
b11001101 H
b11001101 W
1Q
1&
1-
#3520000
0&
#3530000
1E
1R
1&
#3540000
0&
#3550000
0E
1S
0Q
b111 N
b11001101101101111000000001110000101101001100010111011110000000000000000000000000000000000000000000000000000000000000000000000000 P
1&
0-
#3560000
0&
#3570000
0R
1&
#3580000
0&
#3590000
b11011000 V
0S
1&
b11011000 /
b11011000 G
b11011000 `
b111 _
#3600000
0&
#3610000
b11011000 H
b11011000 W
1Q
1&
1-
#3620000
0&
#3630000
1E
1R
1&
#3640000
0&
#3650000
0E
b1000 N
b11011000110011011011011110000000011100001011010011000101110111100000000000000000000000000000000000000000000000000000000000000000 P
1S
0Q
1&
0-
#3660000
0&
#3670000
0R
1&
#3680000
0&
#3690000
b110000 V
0S
1&
b110000 /
b110000 G
b110000 `
b1000 _
#3700000
0&
#3710000
b110000 H
b110000 W
1Q
1&
1-
#3720000
0&
#3730000
1E
1R
1&
#3740000
0&
#3750000
0E
1S
0Q
b1001 N
b110000110110001100110110110111100000000111000010110100110001011101111000000000000000000000000000000000000000000000000000000000 P
1&
0-
#3760000
0&
#3770000
0R
1&
#3780000
0&
#3790000
b100 V
0S
1&
b100 /
b100 G
b100 `
b1001 _
#3800000
0&
#3810000
b100 H
b100 W
1Q
1&
1-
#3820000
0&
#3830000
1E
1R
1&
#3840000
0&
#3850000
0E
b1010 N
b100001100001101100011001101101101111000000001110000101101001100010111011110000000000000000000000000000000000000000000000000 P
1S
0Q
1&
0-
#3860000
0&
#3870000
0R
1&
#3880000
0&
#3890000
b1111011 V
0S
1&
b1111011 /
b1111011 G
b1111011 `
b1010 _
#3900000
0&
#3910000
b1111011 H
b1111011 W
1Q
1&
1-
#3920000
0&
#3930000
1E
1R
1&
#3940000
0&
#3950000
0E
1S
0Q
b1011 N
b1111011000001000011000011011000110011011011011110000000011100001011010011000101110111100000000000000000000000000000000000000000 P
1&
0-
#3960000
0&
#3970000
0R
1&
#3980000
0&
#3990000
b1101010 V
0S
1&
b1101010 /
b1101010 G
b1101010 `
b1011 _
#4000000
0&
#4010000
b1101010 H
b1101010 W
1Q
1&
1-
#4020000
0&
#4030000
1E
1R
1&
#4040000
0&
#4050000
0E
b1100 N
b1101010011110110000010000110000110110001100110110110111100000000111000010110100110001011101111000000000000000000000000000000000 P
1S
0Q
1&
0-
#4060000
0&
#4070000
0R
1&
#4080000
0&
#4090000
b11011000 V
0S
1&
b11011000 /
b11011000 G
b11011000 `
b1100 _
#4100000
0&
#4110000
b11011000 H
b11011000 W
1Q
1&
1-
#4120000
0&
#4130000
1E
1R
1&
#4140000
0&
#4150000
0E
1S
0Q
b1101 N
b11011000011010100111101100000100001100001101100011001101101101111000000001110000101101001100010111011110000000000000000000000000 P
1&
0-
#4160000
0&
#4170000
0R
1&
#4180000
0&
#4190000
b11100000 V
0S
1&
b11100000 /
b11100000 G
b11100000 `
b1101 _
#4200000
0&
#4210000
b11100000 H
b11100000 W
1Q
1&
1-
#4220000
0&
#4230000
1E
1R
1&
#4240000
0&
#4250000
0E
b1110 N
b11100000110110000110101001111011000001000011000011011000110011011011011110000000011100001011010011000101110111100000000000000000 P
1S
0Q
1&
0-
#4260000
0&
#4270000
0R
1&
#4280000
0&
#4290000
b11000100 V
0S
1&
b11000100 /
b11000100 G
b11000100 `
b1110 _
#4300000
0&
#4310000
b11000100 H
b11000100 W
1Q
1&
1-
#4320000
0&
#4330000
1E
1R
1&
#4340000
0&
#4350000
0E
b1 Y
1S
0Q
1J
b1111 N
b11000100111000001101100001101010011110110000010000110000110110001100110110110111100000000111000010110100110001011101111000000000 P
1&
0-
#4360000
0&
#4370000
0R
1&
#4380000
0&
#4390000
b10101101 V
0S
1&
b10101101 /
b10101101 G
b10101101 `
b1111 _
#4400000
0&
#4410000
b10101101 H
b10101101 W
1Q
1&
1-
#4420000
0&
#4430000
b10 Y
1E
1R
1&
#4440000
0&
#4450000
0E
1C
0J
b0 N
b10101101110001001110000011011000011010100111101100000100001100001101100011001101101101111000000001110000101101001100010111011110 P
0I
b10 X
1S
0Q
1&
0-
#4460000
0&
#4470000
0C
0R
b10 Z
1D
1!
b10101101110001001110000011011000011010100111101100000100001100001101100011001101101101111000000001110000101101001100010111011110 "
b10101101110001001110000011011000011010100111101100000100001100001101100011001101101101111000000001110000101101001100010111011110 4
b10101101110001001110000011011000011010100111101100000100001100001101100011001101101101111000000001110000101101001100010111011110 O
1&
#4480000
0&
#4490000
1%
1B
b10101101110001001110000011011000011010100111101100000100001100001101100011001101101101111000000001110000101101001100010111011110 A
0D
0!
0S
1&
b10000 _
#4500000
0&
#4510000
1&
#4520000
0&
#4530000
1T
1&
1.
#4540000
0&
#4550000
b0 Y
1F
1U
1&
#4560000
0&
#4570000
b0 X
1&
#4580000
0&
#4590000
b0 Z
b0 P
1&
#4600000
0&
#4610000
1&
#4620000
0&
#4630000
1&
#4640000
0&
#4650000
1&
#4660000
0&
#4670000
1&
#4680000
0&
#4690000
1&
#4700000
0&
#4710000
1&
#4720000
0&
#4730000
1(
1&
#4740000
0&
#4750000
b1 $
b1 @
1#
1&
#4760000
0&
#4770000
b0 $
b0 @
0#
b1 \
1&
#4780000
0&
#4790000
b1 $
b1 @
1#
0(
b110000000000000000000000000100 [
b1 +
1&
#4800000
0&
#4810000
b0 $
b0 @
0#
b110000000000000000000000000100 '
b110000000000000000000000000100 1
1(
1&
#4820000
0&
#4830000
b1110000101101001100010111011110 $
b1110000101101001100010111011110 @
1#
1&
#4840000
0&
#4850000
b0 $
b0 @
0#
b1110000101101001100010111011110 \
1&
#4860000
0&
#4870000
b1110000101101001100010111011110 $
b1110000101101001100010111011110 @
1#
0(
b110000000000000000000000010000 [
b1110000101101001100010111011110 +
1&
#4880000
0&
#4890000
b0 $
b0 @
0#
b110000000000000000000000010000 '
b110000000000000000000000010000 1
1(
1&
#4900000
0&
#4910000
b10101101110001001110000011011000 $
b10101101110001001110000011011000 @
1#
1&
#4920000
0&
#4930000
b0 $
b0 @
0#
b10101101110001001110000011011000 \
1&
#4940000
0&
#4950000
b10101101110001001110000011011000 $
b10101101110001001110000011011000 @
1#
0(
b10101101110001001110000011011000 +
1&
#4960000
0&
#4970000
b0 $
b0 @
0#
1&
